INSEE Code,Name,lat,lon,totEM,totHM,inclination,azimuth
97412,Saint-Joseph,-21.306,55.642,1245.3000000000002,1735.0,17.0,179.0
97413,Saint-Leu,-21.166,55.333,1325.0,1797.0,22.0,166.0
97406,La Plaine-des-Palmistes,-21.152,55.644,1326.6,1831.0,20.0,155.0
97403,Entre-Deux,-21.204,55.492,1282.9,1773.0,23.0,-178.0
97420,Sainte-Suzanne,-20.946,55.593,1348.0,1854.0,22.0,-179.0
97411,Saint-Denis,-20.933,55.447,1321.6,1784.0,23.0,-178.0
97414,Saint-Louis,-21.234,55.422,1371.0,1869.0,22.0,179.0
97415,Saint-Paul,-21.045,55.322,1133.3,1537.0,20.0,177.0
97416,Saint-Pierre,-21.312,55.494,1523.0,2089.0,22.0,179.0
97401,Les Avirons,-21.210,55.359,1386.0,1874.0,22.0,177.0
97418,Sainte-Marie,-20.947,55.531,1294.8000000000002,1782.0,21.0,-176.0
97419,Sainte-Rose,-21.192,55.755,1189.3000000000002,1641.0,17.0,-173.0
97421,Salazie,-21.047,55.508,1165.7,1615.0,18.0,-160.0
97409,Saint-Andr0,-20.963,55.642,1490.0,2051.0,22.0,-179.0
97410,Saint-Beno0t,-21.092,55.649,1124.8000000000002,1555.2,16.0,-162.0
97424,Cilaos,-21.144,55.459,1295.2,1756.0,21.0,179.0
97404,L'Rtang-Sal0,-21.249,55.367,1620.0,2214.0,22.0,179.0
97402,Bras-Panon,-21.023,55.620,1139.4,1568.0,20.0,-176.0
97405,Petite-Mle,-21.340,55.569,1635.0,2248.0,21.0,-180.0
97408,La Possession,-20.994,55.398,1071.3000000000002,1493.4,12.0,-154.0
97407,Le Port,-20.944,55.305,1176.2,1628.0,21.0,179.0
97423,Les Trois-Bassins,-21.110,55.330,1218.2,1640.0,21.0,176.0
97417,Saint-Philippe,-21.304,55.745,1383.5,1911.0,18.0,-171.0
97422,Le Tampon,-21.223,55.559,1288.0,1777.0,23.0,178.0
